{
  "trigger": {
    "type": "key_hold",
    "key": "space",
    "max_seconds": 1.5
  },
  "actions": [
    {
      "type": "set_variable",
      "name": "teleport_distance",
      "value": {
        "type": "multiplication",
        "operands": [
          {
            "type": "variable",
            "name": "key_hold_time"
          },
          {
            "type": "constant",
            "value": 25
          }
        ]
      }
    },
    {
      "type": "teleport_forward",
      "distance": {
        "type": "variable",
        "name": "teleport_distance"
      }
    }
  ]
}
