<?xml version="1.0" encoding="UTF-8" standalone="no"?>
<svg
   height="512pt"
   viewBox="0 0 512 512"
   width="512pt"
   version="1.1"
   id="svg6"
   sodipodi:docname="Attack.svg"
   inkscape:version="1.1.2 (b8e25be833, 2022-02-05)"
   inkscape:export-filename="C:\Users\quint\IdeaProjects\bubble-blaster - Copy\src\main\resources\Assets\tk.ultreonteam.bubbles\Textures\Effects\Attack.png"
   inkscape:export-xdpi="72"
   inkscape:export-ydpi="72"
   xmlns:inkscape="http://www.inkscape.org/namespaces/inkscape"
   xmlns:sodipodi="http://sodipodi.sourceforge.net/DTD/sodipodi-0.dtd"
   xmlns="http://www.w3.org/2000/svg"
   xmlns:svg="http://www.w3.org/2000/svg">
  <defs
     id="defs10" />
  <sodipodi:namedview
     id="namedview8"
     pagecolor="#505050"
     bordercolor="#ffffff"
     borderopacity="1"
     inkscape:pageshadow="0"
     inkscape:pageopacity="0"
     inkscape:pagecheckerboard="1"
     inkscape:document-units="pt"
     showgrid="false"
     inkscape:zoom="0.25"
     inkscape:cx="458"
     inkscape:cy="396"
     inkscape:window-width="1920"
     inkscape:window-height="1009"
     inkscape:window-x="-8"
     inkscape:window-y="-8"
     inkscape:window-maximized="1"
     inkscape:current-layer="svg6" />
  <path
     d="M 512,0 404.30078,1.667969 108.93359,314.89453 l 33.95313,33.93359 57.54687,-57.51562 21.20704,21.19922 -57.54688,57.51562 33.28125,33.26172 310.42969,-297.95703 z m 0,0"
     id="path2"
     style="opacity:1;mix-blend-mode:normal;fill:#343434;fill-opacity:1" />
  <path
     d="m10.964844 346.425781 46.039062 46.015625-56 55.96875-1.003906 62.855469 64.285156.734375 56.171875-56.140625 46.039063 46.015625 43.550781-43.527344-155.53125-155.445312zm0 0"
     id="path4"
     style="fill:#5c5c5c;fill-opacity:1" />
</svg>
