<?xml version="1.0" encoding="UTF-8" standalone="no"?>
<!-- Generator: Adobe Illustrator 19.0.0, SVG Export Plug-In . SVG Version: 6.00 Build 0)  -->

<svg
   version="1.1"
   id="Capa_1"
   x="0px"
   y="0px"
   viewBox="0 0 448 448"
   style="enable-background:new 0 0 448 448;"
   xml:space="preserve"
   sodipodi:docname="Poison.svg"
   inkscape:version="1.1.2 (b8e25be833, 2022-02-05)"
   inkscape:export-filename="C:\Users\quint\IdeaProjects\bubble-blaster - Copy\src\main\resources\Assets\tk.ultreonteam.bubbles\Textures\Effects\Poison.png"
   inkscape:export-xdpi="109.71"
   inkscape:export-ydpi="109.71"
   xmlns:inkscape="http://www.inkscape.org/namespaces/inkscape"
   xmlns:sodipodi="http://sodipodi.sourceforge.net/DTD/sodipodi-0.dtd"
   xmlns="http://www.w3.org/2000/svg"
   xmlns:svg="http://www.w3.org/2000/svg"><defs
   id="defs53" /><sodipodi:namedview
   id="namedview51"
   pagecolor="#505050"
   bordercolor="#ffffff"
   borderopacity="1"
   inkscape:pageshadow="0"
   inkscape:pageopacity="0"
   inkscape:pagecheckerboard="1"
   showgrid="false"
   inkscape:zoom="1.8370536"
   inkscape:cx="224"
   inkscape:cy="223.72783"
   inkscape:window-width="1920"
   inkscape:window-height="1009"
   inkscape:window-x="-8"
   inkscape:window-y="-8"
   inkscape:window-maximized="1"
   inkscape:current-layer="Capa_1" />
<g
   id="g6"
   style="fill:#545454;fill-opacity:1">
	<g
   id="g4"
   style="fill:#545454;fill-opacity:1">
		<path
   d="M416,256c0-17.68-14.32-32-32-32s-32,14.32-32,32c0,3.6,0.736,7.008,1.824,10.256L224,323.952L94.176,266.256    C95.264,263.008,96,259.6,96,256c0-17.68-14.32-32-32-32s-32,14.32-32,32c-17.68,0-32,14.32-32,32s14.32,32,32,32    c12,0,22.352-6.688,27.824-16.48l105.072,46.704l-41.072,18.256C118.352,358.688,108,352,96,352c-17.68,0-32,14.32-32,32    s14.32,32,32,32c0,17.68,14.32,32,32,32s32-14.32,32-32c0-3.6-0.736-7.008-1.824-10.256L388.192,303.52    C393.648,313.312,404,320,416,320c17.68,0,32-14.32,32-32S433.68,256,416,256z"
   id="path2"
   style="fill:#545454;fill-opacity:1" />
	</g>
</g>
    <g
   id="g12"
   style="fill:#404040;fill-opacity:1">
	<g
   id="g10"
   style="fill:#404040;fill-opacity:1">
		<path
   d="M352,352c-12,0-22.352,6.688-27.824,16.48l-21.376-9.504l-59.104,26.272l46.128,20.496C288.736,408.992,288,412.4,288,416    c0,17.68,14.32,32,32,32s32-14.32,32-32c17.68,0,32-14.32,32-32S369.68,352,352,352z"
   id="path8"
   style="fill:#404040;fill-opacity:1" />
	</g>
</g>
    <g
   id="g18"
   style="fill:#808080;fill-opacity:1">
	<g
   id="g16"
   style="fill:#808080;fill-opacity:1">
		<path
   d="M224,0C153.312,0,96,57.312,96,128v62.864c0,10.704,5.344,20.704,14.256,26.624L144,240v32h32v-32h32v32h32v-32h32v32h32    v-32l33.744-22.496C346.656,211.568,352,201.568,352,190.88V128C352,57.312,294.688,0,224,0z M160,192c-17.664,0-32-14.336-32-32    c0-17.68,14.336-32,32-32c17.68,0,32,14.32,32,32C192,177.664,177.68,192,160,192z M208,208c0-17.68,7.168-32,16-32    c8.832,0,16,14.32,16,32H208z M288,192c-17.664,0-32-14.336-32-32c0-17.68,14.336-32,32-32c17.68,0,32,14.32,32,32    C320,177.664,305.68,192,288,192z"
   id="path14"
   style="fill:#808080;fill-opacity:1" />
	</g>
</g>
    <g
   id="g20">
</g>
    <g
   id="g22">
</g>
    <g
   id="g24">
</g>
    <g
   id="g26">
</g>
    <g
   id="g28">
</g>
    <g
   id="g30">
</g>
    <g
   id="g32">
</g>
    <g
   id="g34">
</g>
    <g
   id="g36">
</g>
    <g
   id="g38">
</g>
    <g
   id="g40">
</g>
    <g
   id="g42">
</g>
    <g
   id="g44">
</g>
    <g
   id="g46">
</g>
    <g
   id="g48">
</g>
</svg>
